{
  "sw-product": {
    "reviews": {
      "columnTitle": {
        "headline": "Titel",
        "rating": "Rating",
        "alias": "Anzeigename",
        "isApproved": "Genehmigt"
      },
      "cardTitleReviews": "Bewertungen"
    },
    "detail": {
      "tabReviews": "Bewertungen1"
    },
    "reviewForm": {
      "contextMenuCustomer": "Zum Kunden gehen",
      "contextMenuReject": "Bewertung ablehnen",
      "contextMenuApprove": "Bewertung akzeptieren"
    }
  },
  "sw-review": {
    "general": {
      "mainMenuItemList": "Bewertungen",
      "mainMenuItemGeneral": "Bewertungen",
      "placeholderSearchBar": "Durchsuche alle Bewertungen ...",
      "descriptionTextModule": "Verwaltung von Bewertungen."
    },
    "list": {
      "textReviewOverview": "Bewertungen",
      "columnProduct": "Produkt",
      "columnPoints": "Sterne",
      "columnUser": "Alias",
      "columnStatus": "Genehmigt",
      "columnCreatedAt": "Bewertet am",
      "columnComment": "Kommentiert",
      "columnTitle": "Titel",
      "placeholderSearchBar": "Durchsuche alle Bewertungen ...",
      "messageEmpty": "Noch keine Bewertungen",
      "messageEmptySubline": "Verwalte Bewertungen hier",
      "titleSidebarItemRefresh": "Aktualisieren"
    },
    "detail": {
      "textHeadline": "Bewertung",
      "cardTitleReviewInfo": "Bewertung",
      "cardTitleReviewProperties": "Eigenschaften",
      "labelTitle": "Titel",
      "labelPoints": "Sterne",
      "labelUser": "Kunde",
      "labelSalesChannel": "Verkaufskanal",
      "labelCreatedAt": "Erstelldatum",
      "labelProduct": "Produkt",
      "labelEmail": "E-Mail-Adresse",
      "labelLanguage": "Sprache",
      "labelPositive": "Positive Bewertungen",
      "labelNegative": "Negative Bewertungen",
      "labelStatus": "Sichtbar",
      "labelContent": "Inhalt",
      "labelComment": "Kommentar",
      "labelCustomer": "Kunde",
      "titleCardComment": "Kommentar",
      "placeholderComment": "Kommentar eingeben ...",
      "review1PointRatingText": "Unbefriedigend",
      "review2PointRatingText": "Akzeptierbar",
      "review3PointRatingText": "Gut",
      "review4PointRatingText": "Sehr gut",
      "review5PointRatingText": "Exzellent"
    }
  },
  "sw-privileges": {
    "permissions": {
      "review": {
        "label": "Bewertungen"
      }
    }
  },
  "into-advanced-reviews": {
    "general": {
      "mainMenuItemGeneral": "My custom module",
      "descriptionTextModule": "Manage this custom module here"
    },
    "navigation": {
      "label": "Erweiterte Bewertungen"
    }
  }
}